Severity	Code	Description	Project	File	Line	Suppression State
Error		Files has invalid value "<<<<<<< HEAD". Illegal characters in path.	DungeonCrawler			

using System;
using System.Collections.Generic;
using System.Linq;
using System.Text;
using System.Threading.Tasks;
using System.Runtime.InteropServices;
using System.ComponentModel;

namespace DungeonCrawler
{
    class Map
    {
        [DllImport("kernel32", SetLastError = true)]
        static extern IntPtr GetStdHandle(int num);
        [DllImport("kernel32", SetLastError = true, CharSet = CharSet.Ansi)]
        [return: MarshalAs(UnmanagedType.Bool)]
        static extern bool ReadConsoleOutputCharacterA(

        IntPtr hStdout,   // result of 'GetStdHandle(-11)'
        out byte ch,      // A̲N̲S̲I̲ character result
        uint c_in,        // (set to '1')
        uint coord_XY,    // screen location to read, X:loword, Y:hiword
        out uint c_out);  // (unwanted, discard)



        //https://www.thethingsnetwork.org/forum/t/decrypting-messages-for-dummies/4894 


        void Test2()
        {

            char[,] cord = new char[152, 36];
            int[] x = new int[152];
            int[] y = new int[36];


            string seinä = "#";



            Console.WriteLine(MapAssets("map1"));
            var stdout = GetStdHandle(-11);
            for (uint i = 0; i < y.Length; i++)
            {
                for (uint j = 0; j < x.Length; j++)
                {


                    uint coord = j;        // loword  <-- X coord to read
                    coord |= i << 16;           // hiword  <-- Y coord to read

                    if (!ReadConsoleOutputCharacterA(
                            stdout,
                            out byte chAnsi,    // result: single ANSI char
                            1,                  // # of chars to read
                            coord,              // (X,Y) screen location to read (see above)
                            out _))             // result: actual # of chars (unwanted)
                        throw new Win32Exception();

                    if (j == 151)
                    {
                        Console.WriteLine();
                    }
                    else
                    {
                        Console.Write((Char)chAnsi);
                    }
                    cord[j, i] = (Char)chAnsi;

                }
            }
            Console.ReadKey();
        }

        #region Tekniikka testi
        private void Go()
        {
            Populate_Console();
            Windows_Console_Readback();
            Console.ReadKey();
        }

        void Populate_Console()
        {
            Console.Clear();
            Console.Write(@"
 ┌───────┐
1│C D E F│
2│G H I J│
3│K L M N│
4│O P Q R│
 └───────┘
  2 4 6 8

    ".TrimStart('\r', '\n'));
        }

        static void Windows_Console_Readback()
        {
            var stdout = GetStdHandle(-11);

            for (uint coord, y = 1; y <= 4; y++)
            {
                coord = (5 - y) * 2;        // loword  <-- X coord to read
                coord |= y << 16;           // hiword  <-- Y coord to read

                if (!ReadConsoleOutputCharacterA(
                        stdout,
                        out byte chAnsi,    // result: single ANSI char
                        1,                  // # of chars to read
                        coord,              // (X,Y) screen location to read (see above)
                        out _))             // result: actual # of chars (unwanted)
                    throw new Win32Exception();

                Console.Write(" " + (Char)chAnsi + " ");
            }
        }
        #endregion

        string MapAssets(string map)
        {
            switch (map)
            {
                case "map1":
                    string map1 = @"
+-----------------------------------------------------------------------------------------------------------------------------------------------------+
|                                                                                                                    ###    #######                   |
|                   #############################################                                              ######   #####     ###                 |
|              #####             #             ####              ##                                       ######                     ####             |
|           ####                                                  ####             ############### #######                              ###           |
|      ######                                                         #############              ###                                      ##          |
|    ###                          ###                ####                                                                                  #          |
|   ##                            ######              ###                                                                                  #          |
|   #                                                                                                                                      ##         |
|   #             #                                                                                                                          ##       |
|   #            ###                                                                                     ##############                       #       |
|  ##            ####                                                                          ###########             ###                    ##      |
|  #             #####                                                       ##################                           ###                  #      |
| ##              ####                                                   #### #   ###                                       #####              ##     |
| #               #####                                               ###        ##                                             ###             #     |
|#                 ####                                 #####       ##        ####                ##################  ######      ##             #    |
|##                 ####                                ######     ##       ##           ###############            ###    ##       #            #    |
| #                   ##                                          ##       #           ###                                  ##                    #   |
| #                                   #######                   ##        ##          ##                                     ##                   #   |
| #             #                       #####                ####         #          ##                                       #                   #   |
| #             ##                                        ####           #           #                            ######      ###                 #   |
| #              #                                     ####             ##          #                           ###    ####     ##                 #  |
| #              #                                ######                #           #                  ##########         ##     ###               #  |
| #              ###              # #  ###### #### #                   #           ##             ######                   #       ###             #  |
| #              # ########## ################                         #           #            ###                        #         ##############   |
|##              #     # ### #### ####                                 #         ###           ##          #######        ##                          |
|##             #                                                      #        ##           ##     #######      ##########                           |
| #            ##                                                      #       ##            #    ###                      ###########                |
| ##         ##                                                        #       #             #    #                  ######           ####            |
|  ###     ##                                                           #      #             #    #   #####      ######                  ####         |
|    ## ###                                                              #     #      ### #####  ######    ######      #        ##          ######    |
|     ##                                                                  #    ##   ### ###                                      ####            #### |
|                                                                         ##    ####                                      ########  ####            # |
|                                                                          ##                          ###################             #            # |
|                                                                           ###########################                                ############## |
+-----------------------------------------------------------------------------------------------------------------------------------------------------+
".TrimStart('\r', '\n');
                    map = map1;
                    break;
                default:
                    break;
            }

            return map;
        }
    }



    


}

